{
  "hosting": [{
    "target": "review",
    "public": "dist/pwa",
    "ignore": [
      "firebase.json",
      "**/.*",
      "**/node_modules/**"
    ],
    "rewrites": [{
      "source": "**",
      "destination": "/index.html"
    }]
  }]
}
